EESchema Schematic File Version 4
LIBS:BMS-cache
EELAYER 29 0
EELAYER END
$Descr A4 11693 8268
encoding utf-8
Sheet 1 6
Title ""
Date ""
Rev ""
Comp ""
Comment1 ""
Comment2 ""
Comment3 ""
Comment4 ""
$EndDescr
$Comp
L MCU_Parallax:P8X32A-M44 U1
U 1 1 5CE201DA
P 2250 5750
F 0 "U1" H 2250 7031 50  0000 C CNN
F 1 "P8X32A-M44" H 2250 6940 50  0000 C CNN
F 2 "Package_DFN_QFN:QFN-44-1EP_9x9mm_P0.65mm_EP7.5x7.5mm" H 2250 6950 50  0001 C CNN
F 3 "https://www.parallax.com/sites/default/files/downloads/P8X32A-Propeller-Datasheet-v1.4.0_0.pdf" H 2250 5750 50  0001 C CNN
	1    2250 5750
	1    0    0    -1  
$EndComp
$Comp
L ISO1042BQDWVQ1:ISO1042BQDWVQ1 IC3
U 1 1 5CE297AA
P 4900 6100
F 0 "IC3" H 5450 6365 50  0000 C CNN
F 1 "ISO1042BQDWVQ1" H 5450 6274 50  0000 C CNN
F 2 "SOIC127P1150X280-8N" H 5850 6200 50  0001 L CNN
F 3 "" H 5850 6100 50  0001 L CNN
F 4 "CAN Interface IC ISO1042BQDWV/RQ1 - M.2 TCAN1042 AUTOB" H 5850 6000 50  0001 L CNN "Description"
F 5 "2.8" H 5850 5900 50  0001 L CNN "Height"
F 6 "Texas Instruments" H 5850 5800 50  0001 L CNN "Manufacturer_Name"
F 7 "ISO1042BQDWVQ1" H 5850 5700 50  0001 L CNN "Manufacturer_Part_Number"
F 8 "595-ISO1042BQDWVQ1" H 5850 5600 50  0001 L CNN "Mouser Part Number"
F 9 "https://www.mouser.com/Search/Refine.aspx?Keyword=595-ISO1042BQDWVQ1" H 5850 5500 50  0001 L CNN "Mouser Price/Stock"
F 10 "" H 5850 5400 50  0001 L CNN "RS Part Number"
F 11 "" H 5850 5300 50  0001 L CNN "RS Price/Stock"
	1    4900 6100
	1    0    0    -1  
$EndComp
$Comp
L LM5165YQDGSRQ1:LM5165YQDGSRQ1 IC2
U 1 1 5CE2A4B8
P 8950 1050
F 0 "IC2" H 9550 1315 50  0000 C CNN
F 1 "LM5165XQDRCTQ1" H 9550 1224 50  0000 C CNN
F 2 "SOP50P490X110-10N" H 10000 1150 50  0001 L CNN
F 3 "" H 10000 1050 50  0001 L CNN
F 4 "Automotive, 3V-65V, 150mA Synchronous Buck Converter With Ultra-Low IQ" H 10000 950 50  0001 L CNN "Description"
F 5 "1.1" H 10000 850 50  0001 L CNN "Height"
F 6 "Texas Instruments" H 10000 750 50  0001 L CNN "Manufacturer_Name"
F 7 "LM5165YQDGSRQ1" H 10000 650 50  0001 L CNN "Manufacturer_Part_Number"
F 8 "595-LM5165YQDGSRQ1" H 10000 550 50  0001 L CNN "Mouser Part Number"
F 9 "https://www.mouser.com/Search/Refine.aspx?Keyword=595-LM5165YQDGSRQ1" H 10000 450 50  0001 L CNN "Mouser Price/Stock"
F 10 "" H 10000 350 50  0001 L CNN "RS Part Number"
F 11 "" H 10000 250 50  0001 L CNN "RS Price/Stock"
	1    8950 1050
	1    0    0    -1  
$EndComp
$Comp
L BQ7693003DBTR:BQ7693003DBTR IC1
U 1 1 5CE99830
P 6000 2800
F 0 "IC1" H 6650 3065 50  0000 C CNN
F 1 "BQ7693003DBTR" H 6650 2974 50  0000 C CNN
F 2 "SOP50P640X120-30N" H 7150 2900 50  0001 L CNN
F 3 "" H 7150 2800 50  0001 L CNN
F 4 "6 to 10-Series Cell Li-Ion and Li-Phosphate Battery Monitor (bq76940 Family)" H 7150 2700 50  0001 L CNN "Description"
F 5 "1.2" H 7150 2600 50  0001 L CNN "Height"
F 6 "Texas Instruments" H 7150 2500 50  0001 L CNN "Manufacturer_Name"
F 7 "BQ7693003DBTR" H 7150 2400 50  0001 L CNN "Manufacturer_Part_Number"
F 8 "" H 7150 2300 50  0001 L CNN "Mouser Part Number"
F 9 "" H 7150 2200 50  0001 L CNN "Mouser Price/Stock"
F 10 "" H 7150 2100 50  0001 L CNN "RS Part Number"
F 11 "" H 7150 2000 50  0001 L CNN "RS Price/Stock"
	1    6000 2800
	1    0    0    -1  
$EndComp
$Sheet
S 1600 750  700  450 
U 5CE9B021
F0 "C10-C9" 50
F1 "ext_balance.sch" 50
F2 "C+" I L 1600 900 50 
F3 "C_MID" I L 1600 1000 50 
F4 "C-" I L 1600 1100 50 
F5 "M+" I R 2300 900 50 
F6 "M_MID" I R 2300 1000 50 
F7 "M-" I R 2300 1100 50 
$EndSheet
$Sheet
S 1600 1450 700  450 
U 5CECDB8C
F0 "C8-C7" 50
F1 "ext_balance.sch" 50
F2 "C+" I L 1600 1600 50 
F3 "C_MID" I L 1600 1700 50 
F4 "C-" I L 1600 1800 50 
F5 "M+" I R 2300 1600 50 
F6 "M_MID" I R 2300 1700 50 
F7 "M-" I R 2300 1800 50 
$EndSheet
$Sheet
S 1600 2100 700  450 
U 5CECDD63
F0 "C6-C5" 50
F1 "ext_balance.sch" 50
F2 "C+" I L 1600 2250 50 
F3 "C_MID" I L 1600 2350 50 
F4 "C-" I L 1600 2450 50 
F5 "M+" I R 2300 2250 50 
F6 "M_MID" I R 2300 2350 50 
F7 "M-" I R 2300 2450 50 
$EndSheet
$Sheet
S 1600 2750 700  450 
U 5CECDEFB
F0 "C4-C3" 50
F1 "ext_balance.sch" 50
F2 "C+" I L 1600 2900 50 
F3 "C_MID" I L 1600 3000 50 
F4 "C-" I L 1600 3100 50 
F5 "M+" I R 2300 2900 50 
F6 "M_MID" I R 2300 3000 50 
F7 "M-" I R 2300 3100 50 
$EndSheet
$Sheet
S 1600 3400 700  450 
U 5CECE0C4
F0 "C2-C1" 50
F1 "ext_balance.sch" 50
F2 "C+" I L 1600 3550 50 
F3 "C_MID" I L 1600 3650 50 
F4 "C-" I L 1600 3750 50 
F5 "M+" I R 2300 3550 50 
F6 "M_MID" I R 2300 3650 50 
F7 "M-" I R 2300 3750 50 
$EndSheet
Wire Wire Line
	1600 1100 1550 1100
Wire Wire Line
	1550 1100 1550 1350
Wire Wire Line
	1550 1600 1600 1600
Wire Wire Line
	1600 1800 1550 1800
Wire Wire Line
	1550 1800 1550 2050
Wire Wire Line
	1550 2250 1600 2250
Wire Wire Line
	1600 2450 1550 2450
Wire Wire Line
	1550 2450 1550 2700
Wire Wire Line
	1550 2900 1600 2900
Wire Wire Line
	1600 3100 1550 3100
Wire Wire Line
	1550 3100 1550 3350
Wire Wire Line
	1600 3550 1550 3550
Wire Wire Line
	2300 3100 2500 3100
Wire Wire Line
	2500 3100 2500 3350
Wire Wire Line
	2500 3550 2300 3550
Wire Wire Line
	2300 2450 2500 2450
Wire Wire Line
	2500 2450 2500 2700
Wire Wire Line
	2500 2900 2300 2900
Wire Wire Line
	2300 1800 2500 1800
Wire Wire Line
	2500 1800 2500 2050
Wire Wire Line
	2500 2250 2300 2250
Wire Wire Line
	2300 1100 2500 1100
Wire Wire Line
	2500 1100 2500 1350
Wire Wire Line
	2500 1600 2300 1600
Connection ~ 1550 1350
Wire Wire Line
	1550 1350 1550 1600
Connection ~ 1550 2050
Wire Wire Line
	1550 2050 1550 2250
Connection ~ 1550 2700
Wire Wire Line
	1550 2700 1550 2900
Connection ~ 1550 3350
Wire Wire Line
	1550 3350 1550 3550
Connection ~ 2500 1350
Wire Wire Line
	2500 1350 2500 1600
Wire Wire Line
	2500 1350 2700 1350
Wire Wire Line
	2500 2050 2700 2050
Connection ~ 2500 2050
Wire Wire Line
	2500 2050 2500 2250
Wire Wire Line
	2300 1000 2700 1000
Wire Wire Line
	2500 2700 2700 2700
Connection ~ 2500 2700
Wire Wire Line
	2500 2700 2500 2900
Wire Wire Line
	2300 3000 2700 3000
Wire Wire Line
	2500 3350 2700 3350
Connection ~ 2500 3350
Wire Wire Line
	2500 3350 2500 3550
Wire Wire Line
	2300 3650 2700 3650
Wire Wire Line
	2300 3750 2700 3750
Text Label 550  1000 0    50   ~ 0
C9
Text Label 550  1350 0    50   ~ 0
C8
Text Label 550  1700 0    50   ~ 0
C7
Text Label 550  2050 0    50   ~ 0
C6
Text Label 8100 3700 0    50   ~ 0
C5_F
Text Label 550  2700 0    50   ~ 0
C4
Text Label 550  3000 0    50   ~ 0
C3
Text Label 550  3350 0    50   ~ 0
C2
Text Label 550  3650 0    50   ~ 0
C1
Text Label 1350 3950 0    50   ~ 0
C0_F
Text Label 2600 3750 0    50   ~ 0
M0
Text Label 2600 3650 0    50   ~ 0
M1
Text Label 2600 3350 0    50   ~ 0
M2
Text Label 2600 3000 0    50   ~ 0
M3
Text Label 2600 2700 0    50   ~ 0
M4
Text Label 2400 2350 0    50   ~ 0
M5
Text Label 2600 2050 0    50   ~ 0
M6
Text Label 2600 1350 0    50   ~ 0
M8
Text Label 2600 1000 0    50   ~ 0
M9
Text Label 2600 900  0    50   ~ 0
M10
Wire Wire Line
	2300 1700 2700 1700
Text Label 2600 1700 0    50   ~ 0
M7
Text Label 7300 4200 0    50   ~ 0
M10
Text Label 7300 4100 0    50   ~ 0
M9
Text Label 7300 4000 0    50   ~ 0
M8
Text Label 7300 3900 0    50   ~ 0
M7
Text Label 7300 3800 0    50   ~ 0
M6
Text Label 7300 3400 0    50   ~ 0
M3
Text Label 7300 3300 0    50   ~ 0
M2
Text Label 7300 3200 0    50   ~ 0
M1
Text Label 7300 3600 0    50   ~ 0
M5
Text Label 7300 3500 0    50   ~ 0
M4
Text Label 7300 3100 0    50   ~ 0
M0
Text Label 5800 4200 0    50   ~ 0
BAT
Text Label 5450 3700 0    50   ~ 0
VC5X
$Comp
L Device:C C?
U 1 1 5CF12EED
P 7850 4200
AR Path="/5CE9B021/5CF12EED" Ref="C?"  Part="1" 
AR Path="/5CECE0C4/5CF12EED" Ref="C?"  Part="1" 
AR Path="/5CF12EED" Ref="C12"  Part="1" 
F 0 "C12" H 7965 4246 50  0000 L CNN
F 1 "1u" H 7965 4155 50  0000 L CNN
F 2 "IPC7351-Nominal:CAPC1608X55N" H 7888 4050 50  0001 C CNN
F 3 "~" H 7850 4200 50  0001 C CNN
	1    7850 4200
	1    0    0    -1  
$EndComp
$Comp
L Device:R R14
U 1 1 5CF19BB0
P 7900 3700
AR Path="/5CF19BB0" Ref="R14"  Part="1" 
AR Path="/5CE9B021/5CF19BB0" Ref="R?"  Part="1" 
AR Path="/5CECDB8C/5CF19BB0" Ref="R?"  Part="1" 
AR Path="/5CECDD63/5CF19BB0" Ref="R?"  Part="1" 
AR Path="/5CECDEFB/5CF19BB0" Ref="R?"  Part="1" 
AR Path="/5CECE0C4/5CF19BB0" Ref="R?"  Part="1" 
F 0 "R14" V 7693 3700 50  0000 C CNN
F 1 "1k" V 7784 3700 50  0000 C CNN
F 2 "IPC7351-Nominal:RESC1608X50N" V 7830 3700 50  0001 C CNN
F 3 "~" H 7900 3700 50  0001 C CNN
	1    7900 3700
	0    1    1    0   
$EndComp
Wire Wire Line
	8050 3700 8200 3700
$Comp
L 1N4148W-7-F:1N4148W-7-F D2
U 1 1 5CF29292
P 3550 900
F 0 "D2" H 3850 1165 50  0000 C CNN
F 1 "1N4148W-7-F" H 3850 1074 50  0000 C CNN
F 2 "SOD3716X115N" H 4000 900 50  0001 L CNN
F 3 "" H 4000 800 50  0001 L CNN
F 4 "Diode Switching 150mA 100V 400mW SOD123 Diodes Inc 1N4148W-7-F Switching Diode 100V, 2-Pin SOD-123" H 4000 700 50  0001 L CNN "Description"
F 5 "1.15" H 4000 600 50  0001 L CNN "Height"
F 6 "Diodes Inc." H 4000 500 50  0001 L CNN "Manufacturer_Name"
F 7 "1N4148W-7-F" H 4000 400 50  0001 L CNN "Manufacturer_Part_Number"
F 8 "621-1N4148W-F" H 4000 300 50  0001 L CNN "Mouser Part Number"
F 9 "https://www.mouser.com/Search/Refine.aspx?Keyword=621-1N4148W-F" H 4000 200 50  0001 L CNN "Mouser Price/Stock"
F 10 "9228077" H 4000 100 50  0001 L CNN "RS Part Number"
F 11 "https://uk.rs-online.com/web/p/products/9228077" H 4000 0   50  0001 L CNN "RS Price/Stock"
F 12 "71028125" H 4000 -100 50  0001 L CNN "Allied_Number"
F 13 "https://www.alliedelec.com/diodes-inc-1n4148w-7-f/71028125/" H 4000 -200 50  0001 L CNN "Allied Price/Stock"
	1    3550 900 
	-1   0    0    1   
$EndComp
$Comp
L 1N4148W-7-F:1N4148W-7-F D1
U 1 1 5CF2C635
P 3100 2350
F 0 "D1" H 3400 2615 50  0000 C CNN
F 1 "1N4148W-7-F" H 3400 2524 50  0000 C CNN
F 2 "SOD3716X115N" H 3550 2350 50  0001 L CNN
F 3 "" H 3550 2250 50  0001 L CNN
F 4 "Diode Switching 150mA 100V 400mW SOD123 Diodes Inc 1N4148W-7-F Switching Diode 100V, 2-Pin SOD-123" H 3550 2150 50  0001 L CNN "Description"
F 5 "1.15" H 3550 2050 50  0001 L CNN "Height"
F 6 "Diodes Inc." H 3550 1950 50  0001 L CNN "Manufacturer_Name"
F 7 "1N4148W-7-F" H 3550 1850 50  0001 L CNN "Manufacturer_Part_Number"
F 8 "621-1N4148W-F" H 3550 1750 50  0001 L CNN "Mouser Part Number"
F 9 "https://www.mouser.com/Search/Refine.aspx?Keyword=621-1N4148W-F" H 3550 1650 50  0001 L CNN "Mouser Price/Stock"
F 10 "9228077" H 3550 1550 50  0001 L CNN "RS Part Number"
F 11 "https://uk.rs-online.com/web/p/products/9228077" H 3550 1450 50  0001 L CNN "RS Price/Stock"
F 12 "71028125" H 3550 1350 50  0001 L CNN "Allied_Number"
F 13 "https://www.alliedelec.com/diodes-inc-1n4148w-7-f/71028125/" H 3550 1250 50  0001 L CNN "Allied Price/Stock"
	1    3100 2350
	-1   0    0    1   
$EndComp
Wire Wire Line
	2300 900  2950 900 
Text Label 3600 2350 0    50   ~ 0
VC5X
Text Label 3550 900  0    50   ~ 0
BAT
Wire Wire Line
	3800 900  3550 900 
$Comp
L Device:C C?
U 1 1 5CF41EDA
P 5300 3900
AR Path="/5CE9B021/5CF41EDA" Ref="C?"  Part="1" 
AR Path="/5CECE0C4/5CF41EDA" Ref="C?"  Part="1" 
AR Path="/5CF41EDA" Ref="C10"  Part="1" 
F 0 "C10" H 5415 3946 50  0000 L CNN
F 1 "10u" H 5415 3855 50  0000 L CNN
F 2 "IPC7351-Nominal:CAPC1608X55N" H 5338 3750 50  0001 C CNN
F 3 "~" H 5300 3900 50  0001 C CNN
	1    5300 3900
	1    0    0    -1  
$EndComp
$Comp
L Device:C C?
U 1 1 5CF4364A
P 4950 3900
AR Path="/5CE9B021/5CF4364A" Ref="C?"  Part="1" 
AR Path="/5CECE0C4/5CF4364A" Ref="C?"  Part="1" 
AR Path="/5CF4364A" Ref="C9"  Part="1" 
F 0 "C9" H 5065 3946 50  0000 L CNN
F 1 "1u" H 5065 3855 50  0000 L CNN
F 2 "IPC7351-Nominal:CAPC1608X55N" H 4988 3750 50  0001 C CNN
F 3 "~" H 4950 3900 50  0001 C CNN
	1    4950 3900
	1    0    0    -1  
$EndComp
Text GLabel 5800 3000 0    50   Input ~ 0
GND
Wire Wire Line
	5800 3000 6000 3000
Wire Wire Line
	5300 4100 5650 4100
Text GLabel 4200 4150 0    50   Input ~ 0
GND
Wire Wire Line
	4950 4150 4950 4050
Wire Wire Line
	5300 4100 5300 4050
Wire Wire Line
	5300 3750 5300 3700
Wire Wire Line
	4950 3400 4950 3750
Text GLabel 1500 4050 0    50   Input ~ 0
GND
$Comp
L Device:C C?
U 1 1 5CF68EF9
P 4600 3900
AR Path="/5CE9B021/5CF68EF9" Ref="C?"  Part="1" 
AR Path="/5CECE0C4/5CF68EF9" Ref="C?"  Part="1" 
AR Path="/5CF68EF9" Ref="C7"  Part="1" 
F 0 "C7" H 4715 3946 50  0000 L CNN
F 1 "1u" H 4715 3855 50  0000 L CNN
F 2 "IPC7351-Nominal:CAPC1608X55N" H 4638 3750 50  0001 C CNN
F 3 "~" H 4600 3900 50  0001 C CNN
	1    4600 3900
	1    0    0    -1  
$EndComp
Wire Wire Line
	4600 4050 4600 4150
$Comp
L Device:C C?
U 1 1 5CF772C1
P 4250 3900
AR Path="/5CE9B021/5CF772C1" Ref="C?"  Part="1" 
AR Path="/5CECE0C4/5CF772C1" Ref="C?"  Part="1" 
AR Path="/5CF772C1" Ref="C6"  Part="1" 
F 0 "C6" H 4365 3946 50  0000 L CNN
F 1 "10u" H 4365 3855 50  0000 L CNN
F 2 "IPC7351-Nominal:CAPC1608X55N" H 4288 3750 50  0001 C CNN
F 3 "~" H 4250 3900 50  0001 C CNN
	1    4250 3900
	1    0    0    -1  
$EndComp
Connection ~ 4600 3600
Wire Wire Line
	4600 3600 4600 3750
Wire Wire Line
	4950 4150 4600 4150
Connection ~ 4600 4150
Wire Wire Line
	4250 4050 4250 4150
Wire Wire Line
	4250 4150 4200 4150
Wire Wire Line
	4250 4150 4600 4150
Connection ~ 4250 4150
$Comp
L Device:R R12
U 1 1 5CF97F10
P 6650 4600
AR Path="/5CF97F10" Ref="R12"  Part="1" 
AR Path="/5CE9B021/5CF97F10" Ref="R?"  Part="1" 
AR Path="/5CECDB8C/5CF97F10" Ref="R?"  Part="1" 
AR Path="/5CECDD63/5CF97F10" Ref="R?"  Part="1" 
AR Path="/5CECDEFB/5CF97F10" Ref="R?"  Part="1" 
AR Path="/5CECE0C4/5CF97F10" Ref="R?"  Part="1" 
F 0 "R12" H 6720 4646 50  0000 L CNN
F 1 "10k" H 6720 4555 50  0000 L CNN
F 2 "IPC7351-Nominal:RESC1608X50N" V 6580 4600 50  0001 C CNN
F 3 "~" H 6650 4600 50  0001 C CNN
	1    6650 4600
	-1   0    0    1   
$EndComp
$Comp
L Device:R R13
U 1 1 5CF9A352
P 7000 4600
AR Path="/5CF9A352" Ref="R13"  Part="1" 
AR Path="/5CE9B021/5CF9A352" Ref="R?"  Part="1" 
AR Path="/5CECDB8C/5CF9A352" Ref="R?"  Part="1" 
AR Path="/5CECDD63/5CF9A352" Ref="R?"  Part="1" 
AR Path="/5CECDEFB/5CF9A352" Ref="R?"  Part="1" 
AR Path="/5CECE0C4/5CF9A352" Ref="R?"  Part="1" 
F 0 "R13" H 7070 4646 50  0000 L CNN
F 1 "10k" H 7070 4555 50  0000 L CNN
F 2 "IPC7351-Nominal:RESC1608X50N" V 6930 4600 50  0001 C CNN
F 3 "~" H 7000 4600 50  0001 C CNN
	1    7000 4600
	-1   0    0    1   
$EndComp
Wire Wire Line
	6450 4450 6650 4450
Wire Wire Line
	6450 4900 6650 4900
Wire Wire Line
	6800 4450 7000 4450
Wire Wire Line
	6800 4900 7000 4900
Text Label 6500 4450 0    50   ~ 0
TS1
Text Label 6850 4450 0    50   ~ 0
TS2
Text GLabel 6450 4900 0    50   Input ~ 0
GND
Wire Wire Line
	7000 4900 7000 4750
Wire Wire Line
	6650 4900 6650 4750
Text Label 6800 4900 0    50   ~ 0
VC5X
$Comp
L 1N4148W-7-F:1N4148W-7-F D3
U 1 1 5CFC9BF4
P 4600 3550
F 0 "D3" H 4900 3815 50  0000 C CNN
F 1 "1N4148W-7-F" H 4900 3724 50  0000 C CNN
F 2 "SOD3716X115N" H 5050 3550 50  0001 L CNN
F 3 "" H 5050 3450 50  0001 L CNN
F 4 "Diode Switching 150mA 100V 400mW SOD123 Diodes Inc 1N4148W-7-F Switching Diode 100V, 2-Pin SOD-123" H 5050 3350 50  0001 L CNN "Description"
F 5 "1.15" H 5050 3250 50  0001 L CNN "Height"
F 6 "Diodes Inc." H 5050 3150 50  0001 L CNN "Manufacturer_Name"
F 7 "1N4148W-7-F" H 5050 3050 50  0001 L CNN "Manufacturer_Part_Number"
F 8 "621-1N4148W-F" H 5050 2950 50  0001 L CNN "Mouser Part Number"
F 9 "https://www.mouser.com/Search/Refine.aspx?Keyword=621-1N4148W-F" H 5050 2850 50  0001 L CNN "Mouser Price/Stock"
F 10 "9228077" H 5050 2750 50  0001 L CNN "RS Part Number"
F 11 "https://uk.rs-online.com/web/p/products/9228077" H 5050 2650 50  0001 L CNN "RS Price/Stock"
F 12 "71028125" H 5050 2550 50  0001 L CNN "Allied_Number"
F 13 "https://www.alliedelec.com/diodes-inc-1n4148w-7-f/71028125/" H 5050 2450 50  0001 L CNN "Allied Price/Stock"
	1    4600 3550
	0    -1   -1   0   
$EndComp
Wire Wire Line
	4100 2100 4100 2350
Connection ~ 4600 1450
Wire Wire Line
	4100 1450 4600 1450
Wire Wire Line
	4100 1800 4100 1450
$Comp
L Device:C C?
U 1 1 5CFBEE2A
P 4100 1950
AR Path="/5CE9B021/5CFBEE2A" Ref="C?"  Part="1" 
AR Path="/5CECE0C4/5CFBEE2A" Ref="C?"  Part="1" 
AR Path="/5CFBEE2A" Ref="C5"  Part="1" 
F 0 "C5" H 4215 1996 50  0000 L CNN
F 1 "10u" H 4215 1905 50  0000 L CNN
F 2 "IPC7351-Nominal:CAPC1608X55N" H 4138 1800 50  0001 C CNN
F 3 "~" H 4100 1950 50  0001 C CNN
	1    4100 1950
	1    0    0    -1  
$EndComp
Wire Wire Line
	4300 2350 4100 2350
Text Label 4600 1450 0    50   ~ 0
C10_F
Wire Wire Line
	4600 1450 4750 1450
Wire Wire Line
	4600 1550 4600 1450
$Comp
L NX7002AKVL:NX7002AKVL Q1
U 1 1 5CEF7958
P 4300 2350
F 0 "Q1" H 4730 2496 50  0000 L CNN
F 1 "NX7002AKVL" H 4730 2405 50  0000 L CNN
F 2 "SOT95P230X110-3N" H 4750 2300 50  0001 L CNN
F 3 "" H 4750 2200 50  0001 L CNN
F 4 "Trans MOSFET N-CH 60V 0.19A 3-Pin TO-236AB" H 4750 2100 50  0001 L CNN "Description"
F 5 "1.1" H 4750 2000 50  0001 L CNN "Height"
F 6 "Nexperia" H 4750 1900 50  0001 L CNN "Manufacturer_Name"
F 7 "NX7002AKVL" H 4750 1800 50  0001 L CNN "Manufacturer_Part_Number"
F 8 "771-NX7002AKVL" H 4750 1700 50  0001 L CNN "Mouser Part Number"
F 9 "https://www.mouser.com/Search/Refine.aspx?Keyword=771-NX7002AKVL" H 4750 1600 50  0001 L CNN "Mouser Price/Stock"
F 10 "" H 4750 1500 50  0001 L CNN "RS Part Number"
F 11 "" H 4750 1400 50  0001 L CNN "RS Price/Stock"
	1    4300 2350
	1    0    0    -1  
$EndComp
Wire Wire Line
	4600 2900 4600 2950
Wire Wire Line
	4600 3550 4600 3600
$Comp
L Device:R R9
U 1 1 5CF01B50
P 4600 1700
AR Path="/5CF01B50" Ref="R9"  Part="1" 
AR Path="/5CE9B021/5CF01B50" Ref="R?"  Part="1" 
AR Path="/5CECDB8C/5CF01B50" Ref="R?"  Part="1" 
AR Path="/5CECDD63/5CF01B50" Ref="R?"  Part="1" 
AR Path="/5CECDEFB/5CF01B50" Ref="R?"  Part="1" 
AR Path="/5CECE0C4/5CF01B50" Ref="R?"  Part="1" 
F 0 "R9" H 4670 1746 50  0000 L CNN
F 1 "200" H 4670 1655 50  0000 L CNN
F 2 "IPC7351-Nominal:RESC1608X50N" V 4530 1700 50  0001 C CNN
F 3 "~" H 4600 1700 50  0001 C CNN
	1    4600 1700
	1    0    0    -1  
$EndComp
Wire Wire Line
	4600 1850 4600 1950
$Comp
L Device:R R11
U 1 1 5CFF44E8
P 4800 3250
AR Path="/5CFF44E8" Ref="R11"  Part="1" 
AR Path="/5CE9B021/5CFF44E8" Ref="R?"  Part="1" 
AR Path="/5CECDB8C/5CFF44E8" Ref="R?"  Part="1" 
AR Path="/5CECDD63/5CFF44E8" Ref="R?"  Part="1" 
AR Path="/5CECDEFB/5CFF44E8" Ref="R?"  Part="1" 
AR Path="/5CECE0C4/5CFF44E8" Ref="R?"  Part="1" 
F 0 "R11" H 4870 3296 50  0000 L CNN
F 1 "100k" H 4870 3205 50  0000 L CNN
F 2 "IPC7351-Nominal:RESC1608X50N" V 4730 3250 50  0001 C CNN
F 3 "~" H 4800 3250 50  0001 C CNN
	1    4800 3250
	1    0    0    -1  
$EndComp
Wire Wire Line
	4800 3100 4800 2950
Wire Wire Line
	4800 2950 4600 2950
Connection ~ 4600 2950
Wire Wire Line
	4800 3400 4800 3600
Connection ~ 4800 3600
Wire Wire Line
	4800 3600 4600 3600
$Comp
L Device:R R10
U 1 1 5D000886
P 4600 2750
AR Path="/5D000886" Ref="R10"  Part="1" 
AR Path="/5CE9B021/5D000886" Ref="R?"  Part="1" 
AR Path="/5CECDB8C/5D000886" Ref="R?"  Part="1" 
AR Path="/5CECDD63/5D000886" Ref="R?"  Part="1" 
AR Path="/5CECDEFB/5D000886" Ref="R?"  Part="1" 
AR Path="/5CECE0C4/5D000886" Ref="R?"  Part="1" 
F 0 "R10" H 4670 2796 50  0000 L CNN
F 1 "100" H 4670 2705 50  0000 L CNN
F 2 "IPC7351-Nominal:RESC1608X50N" V 4530 2750 50  0001 C CNN
F 3 "~" H 4600 2750 50  0001 C CNN
	1    4600 2750
	1    0    0    -1  
$EndComp
Wire Wire Line
	4600 2550 4600 2600
$Comp
L Device:R R8
U 1 1 5D00985C
P 3950 2350
AR Path="/5D00985C" Ref="R8"  Part="1" 
AR Path="/5CE9B021/5D00985C" Ref="R?"  Part="1" 
AR Path="/5CECDB8C/5D00985C" Ref="R?"  Part="1" 
AR Path="/5CECDD63/5D00985C" Ref="R?"  Part="1" 
AR Path="/5CECDEFB/5D00985C" Ref="R?"  Part="1" 
AR Path="/5CECE0C4/5D00985C" Ref="R?"  Part="1" 
F 0 "R8" H 4020 2396 50  0000 L CNN
F 1 "100k" H 4020 2305 50  0000 L CNN
F 2 "IPC7351-Nominal:RESC1608X50N" V 3880 2350 50  0001 C CNN
F 3 "~" H 3950 2350 50  0001 C CNN
	1    3950 2350
	0    1    1    0   
$EndComp
Connection ~ 4100 2350
Wire Wire Line
	7300 3700 7700 3700
$Comp
L Device:C C?
U 1 1 5D04965F
P 7850 4600
AR Path="/5CE9B021/5D04965F" Ref="C?"  Part="1" 
AR Path="/5CECE0C4/5D04965F" Ref="C?"  Part="1" 
AR Path="/5D04965F" Ref="C13"  Part="1" 
F 0 "C13" H 7965 4646 50  0000 L CNN
F 1 "1u" H 7965 4555 50  0000 L CNN
F 2 "IPC7351-Nominal:CAPC1608X55N" H 7888 4450 50  0001 C CNN
F 3 "~" H 7850 4600 50  0001 C CNN
	1    7850 4600
	1    0    0    -1  
$EndComp
Wire Wire Line
	7850 4350 7850 4400
Wire Wire Line
	7850 4050 7700 4050
Wire Wire Line
	7700 4050 7700 3700
Connection ~ 7700 3700
Wire Wire Line
	7700 3700 7750 3700
Wire Wire Line
	7300 3800 7650 3800
Wire Wire Line
	7650 3800 7650 4750
Wire Wire Line
	7650 4750 7850 4750
Wire Wire Line
	7850 4400 8050 4400
Connection ~ 7850 4400
Wire Wire Line
	7850 4400 7850 4450
Text Label 7900 4400 0    50   ~ 0
VC5X
Wire Wire Line
	5100 3500 5100 3700
Wire Wire Line
	5100 3700 4250 3700
Wire Wire Line
	4250 3700 4250 3750
Wire Wire Line
	5650 3900 5650 4100
Connection ~ 5650 4100
Wire Wire Line
	5650 3800 5650 3900
Connection ~ 5650 3900
Text GLabel 7600 3000 2    50   Input ~ 0
GND
Wire Wire Line
	7300 3000 7350 3000
Wire Wire Line
	7300 2900 7350 2900
Wire Wire Line
	7350 2900 7350 3000
Connection ~ 7350 3000
Wire Wire Line
	7350 3000 7600 3000
$Comp
L Device:C C?
U 1 1 5D07163A
P 3450 2500
AR Path="/5CE9B021/5D07163A" Ref="C?"  Part="1" 
AR Path="/5CECE0C4/5D07163A" Ref="C?"  Part="1" 
AR Path="/5D07163A" Ref="C2"  Part="1" 
F 0 "C2" H 3565 2546 50  0000 L CNN
F 1 "10u" H 3565 2455 50  0000 L CNN
F 2 "IPC7351-Nominal:CAPC1608X55N" H 3488 2350 50  0001 C CNN
F 3 "~" H 3450 2500 50  0001 C CNN
	1    3450 2500
	1    0    0    -1  
$EndComp
$Comp
L Device:C C?
U 1 1 5D075041
P 3450 2050
AR Path="/5CE9B021/5D075041" Ref="C?"  Part="1" 
AR Path="/5CECE0C4/5D075041" Ref="C?"  Part="1" 
AR Path="/5D075041" Ref="C1"  Part="1" 
F 0 "C1" H 3565 2096 50  0000 L CNN
F 1 "10u" H 3565 2005 50  0000 L CNN
F 2 "IPC7351-Nominal:CAPC1608X55N" H 3488 1900 50  0001 C CNN
F 3 "~" H 3450 2050 50  0001 C CNN
	1    3450 2050
	1    0    0    -1  
$EndComp
$Comp
L Device:R R5
U 1 1 5D079049
P 3250 1850
AR Path="/5D079049" Ref="R5"  Part="1" 
AR Path="/5CE9B021/5D079049" Ref="R?"  Part="1" 
AR Path="/5CECDB8C/5D079049" Ref="R?"  Part="1" 
AR Path="/5CECDD63/5D079049" Ref="R?"  Part="1" 
AR Path="/5CECDEFB/5D079049" Ref="R?"  Part="1" 
AR Path="/5CECE0C4/5D079049" Ref="R?"  Part="1" 
F 0 "R5" H 3320 1896 50  0000 L CNN
F 1 "1k" H 3320 1805 50  0000 L CNN
F 2 "IPC7351-Nominal:RESC1608X50N" V 3180 1850 50  0001 C CNN
F 3 "~" H 3250 1850 50  0001 C CNN
	1    3250 1850
	0    -1   -1   0   
$EndComp
$Comp
L Device:R R4
U 1 1 5D07C999
P 3200 2200
AR Path="/5D07C999" Ref="R4"  Part="1" 
AR Path="/5CE9B021/5D07C999" Ref="R?"  Part="1" 
AR Path="/5CECDB8C/5D07C999" Ref="R?"  Part="1" 
AR Path="/5CECDD63/5D07C999" Ref="R?"  Part="1" 
AR Path="/5CECDEFB/5D07C999" Ref="R?"  Part="1" 
AR Path="/5CECE0C4/5D07C999" Ref="R?"  Part="1" 
F 0 "R4" H 3270 2246 50  0000 L CNN
F 1 "1k" H 3270 2155 50  0000 L CNN
F 2 "IPC7351-Nominal:RESC1608X50N" V 3130 2200 50  0001 C CNN
F 3 "~" H 3200 2200 50  0001 C CNN
	1    3200 2200
	0    -1   -1   0   
$EndComp
Wire Wire Line
	2300 2350 2500 2350
Text Label 550  2350 0    50   ~ 0
C5
Connection ~ 3450 2350
Wire Wire Line
	3450 2350 3800 2350
Wire Wire Line
	3100 2350 3450 2350
Text Label 2900 1850 0    50   ~ 0
C10_F
Text Label 2850 2200 0    50   ~ 0
C5_F
Wire Wire Line
	3400 1850 3450 1850
Wire Wire Line
	3450 1850 3450 1900
Wire Wire Line
	3450 1850 3550 1850
Connection ~ 3450 1850
Text Label 3500 1850 0    50   ~ 0
BAT
Wire Wire Line
	3350 2200 3450 2200
Wire Wire Line
	3450 2350 3450 2200
Connection ~ 3450 2200
Text GLabel 3400 2700 0    50   Input ~ 0
GND
Wire Wire Line
	3400 2700 3450 2700
Wire Wire Line
	3450 2700 3450 2650
Wire Wire Line
	6000 3100 5800 3100
Wire Wire Line
	6000 3200 5800 3200
$Comp
L Device:Fuse_Small F1
U 1 1 5D11325F
P 1000 750
F 0 "F1" H 1000 935 50  0000 C CNN
F 1 "0ZCG0020AF2C" H 1000 844 50  0000 C CNN
F 2 "IPC7351-Nominal:RESC4532X110N" H 1000 750 50  0001 C CNN
F 3 "~" H 1000 750 50  0001 C CNN
	1    1000 750 
	1    0    0    -1  
$EndComp
$Comp
L Device:Fuse_Small F3
U 1 1 5D1767DF
P 1000 1350
F 0 "F3" H 1000 1535 50  0000 C CNN
F 1 "0ZCG0020AF2C" H 1000 1444 50  0000 C CNN
F 2 "IPC7351-Nominal:RESC4532X110N" H 1000 1350 50  0001 C CNN
F 3 "~" H 1000 1350 50  0001 C CNN
	1    1000 1350
	1    0    0    -1  
$EndComp
Wire Wire Line
	900  1350 550  1350
$Comp
L Device:Fuse_Small F4
U 1 1 5D17BB2E
P 1000 1700
F 0 "F4" H 1000 1885 50  0000 C CNN
F 1 "0ZCG0020AF2C" H 1000 1794 50  0000 C CNN
F 2 "IPC7351-Nominal:RESC4532X110N" H 1000 1700 50  0001 C CNN
F 3 "~" H 1000 1700 50  0001 C CNN
	1    1000 1700
	1    0    0    -1  
$EndComp
Wire Wire Line
	900  1700 550  1700
$Comp
L Device:Fuse_Small F5
U 1 1 5D1809BB
P 1000 2050
F 0 "F5" H 1000 2235 50  0000 C CNN
F 1 "0ZCG0020AF2C" H 1000 2144 50  0000 C CNN
F 2 "IPC7351-Nominal:RESC4532X110N" H 1000 2050 50  0001 C CNN
F 3 "~" H 1000 2050 50  0001 C CNN
	1    1000 2050
	1    0    0    -1  
$EndComp
Wire Wire Line
	900  2050 550  2050
$Comp
L Device:Fuse_Small F6
U 1 1 5D185A79
P 1000 2350
F 0 "F6" H 1000 2535 50  0000 C CNN
F 1 "0ZCG0020AF2C" H 1000 2444 50  0000 C CNN
F 2 "IPC7351-Nominal:RESC4532X110N" H 1000 2350 50  0001 C CNN
F 3 "~" H 1000 2350 50  0001 C CNN
	1    1000 2350
	1    0    0    -1  
$EndComp
Wire Wire Line
	900  2350 550  2350
$Comp
L Device:Fuse_Small F7
U 1 1 5D18AC63
P 1000 2700
F 0 "F7" H 1000 2885 50  0000 C CNN
F 1 "0ZCG0020AF2C" H 1000 2794 50  0000 C CNN
F 2 "IPC7351-Nominal:RESC4532X110N" H 1000 2700 50  0001 C CNN
F 3 "~" H 1000 2700 50  0001 C CNN
	1    1000 2700
	1    0    0    -1  
$EndComp
Wire Wire Line
	900  2700 550  2700
$Comp
L Device:Fuse_Small F8
U 1 1 5D190216
P 1000 3000
F 0 "F8" H 1000 3185 50  0000 C CNN
F 1 "0ZCG0020AF2C" H 1000 3094 50  0000 C CNN
F 2 "IPC7351-Nominal:RESC4532X110N" H 1000 3000 50  0001 C CNN
F 3 "~" H 1000 3000 50  0001 C CNN
	1    1000 3000
	1    0    0    -1  
$EndComp
Wire Wire Line
	900  3000 550  3000
$Comp
L Device:Fuse_Small F9
U 1 1 5D195DE1
P 1000 3350
F 0 "F9" H 1000 3535 50  0000 C CNN
F 1 "0ZCG0020AF2C" H 1000 3444 50  0000 C CNN
F 2 "IPC7351-Nominal:RESC4532X110N" H 1000 3350 50  0001 C CNN
F 3 "~" H 1000 3350 50  0001 C CNN
	1    1000 3350
	1    0    0    -1  
$EndComp
Wire Wire Line
	900  3350 550  3350
$Comp
L Device:Fuse_Small F10
U 1 1 5D19B529
P 1000 3650
F 0 "F10" H 1000 3835 50  0000 C CNN
F 1 "0ZCG0020AF2C" H 1000 3744 50  0000 C CNN
F 2 "IPC7351-Nominal:RESC4532X110N" H 1000 3650 50  0001 C CNN
F 3 "~" H 1000 3650 50  0001 C CNN
	1    1000 3650
	1    0    0    -1  
$EndComp
Wire Wire Line
	900  3650 550  3650
Wire Wire Line
	1100 3650 1600 3650
Wire Wire Line
	1100 3350 1550 3350
Wire Wire Line
	1100 3000 1600 3000
Wire Wire Line
	1100 2700 1550 2700
Wire Wire Line
	1100 2350 1600 2350
Wire Wire Line
	1100 2050 1550 2050
Wire Wire Line
	1100 1700 1600 1700
Wire Wire Line
	1100 1350 1550 1350
$Comp
L Device:Fuse_Small F2
U 1 1 5D1D0DD0
P 1000 1000
F 0 "F2" H 1000 1185 50  0000 C CNN
F 1 "0ZCG0020AF2C" H 1000 1094 50  0000 C CNN
F 2 "IPC7351-Nominal:RESC4532X110N" H 1000 1000 50  0001 C CNN
F 3 "~" H 1000 1000 50  0001 C CNN
	1    1000 1000
	1    0    0    -1  
$EndComp
Wire Wire Line
	900  1000 550  1000
Wire Wire Line
	1100 1000 1600 1000
Wire Wire Line
	1600 900  1500 900 
Wire Wire Line
	1500 900  1500 750 
Wire Wire Line
	1500 750  1100 750 
Text Label 1300 2350 0    50   ~ 0
C5_F
Wire Wire Line
	900  750  550  750 
Text Label 550  750  0    50   ~ 0
C10
Text Label 1300 750  0    50   ~ 0
C10_F
Wire Wire Line
	2850 2200 3050 2200
Wire Wire Line
	2900 1850 3100 1850
$Comp
L Device:Fuse_Small F11
U 1 1 5D28BB79
P 1000 3950
F 0 "F11" H 1000 4135 50  0000 C CNN
F 1 "0ZCG0020AF2C" H 1000 4044 50  0000 C CNN
F 2 "IPC7351-Nominal:RESC4532X110N" H 1000 3950 50  0001 C CNN
F 3 "~" H 1000 3950 50  0001 C CNN
	1    1000 3950
	1    0    0    -1  
$EndComp
Wire Wire Line
	900  3950 550  3950
Text Label 550  3950 0    50   ~ 0
C0
Wire Wire Line
	1100 3950 1550 3950
Wire Wire Line
	1550 3950 1550 3750
Wire Wire Line
	1550 3750 1600 3750
Wire Wire Line
	1550 3950 1550 4050
Wire Wire Line
	1550 4050 1500 4050
Connection ~ 1550 3950
$Comp
L 24LC256-I_ST:24LC256-I_ST IC4
U 1 1 5D2CB6B1
P 1750 7250
F 0 "IC4" H 2250 7515 50  0000 C CNN
F 1 "24LC256-I_ST" H 2250 7424 50  0000 C CNN
F 2 "SOP65P640X120-8N" H 2600 7350 50  0001 L CNN
F 3 "" H 2600 7250 50  0001 L CNN
F 4 "256K, 32K X 8, 2.5V SER EEPROM, IND" H 2600 7150 50  0001 L CNN "Description"
F 5 "1.2" H 2600 7050 50  0001 L CNN "Height"
F 6 "Microchip" H 2600 6950 50  0001 L CNN "Manufacturer_Name"
F 7 "24LC256-I/ST" H 2600 6850 50  0001 L CNN "Manufacturer_Part_Number"
F 8 "579-24LC256IST" H 2600 6750 50  0001 L CNN "Mouser Part Number"
F 9 "https://www.mouser.com/Search/Refine.aspx?Keyword=579-24LC256IST" H 2600 6650 50  0001 L CNN "Mouser Price/Stock"
F 10 "6879079" H 2600 6550 50  0001 L CNN "RS Part Number"
F 11 "https://uk.rs-online.com/web/p/products/6879079" H 2600 6450 50  0001 L CNN "RS Price/Stock"
F 12 "70045245" H 2600 6350 50  0001 L CNN "Allied_Number"
F 13 "http://www.alliedelec.com/microchip-technology-inc-24lc256-i-st/70045245/" H 2600 6250 50  0001 L CNN "Allied Price/Stock"
	1    1750 7250
	1    0    0    -1  
$EndComp
Text Label 5800 3100 0    50   ~ 0
SDA
Text Label 5800 3200 0    50   ~ 0
SCL
Text GLabel 1550 7550 0    50   Input ~ 0
GND
Wire Wire Line
	1750 7550 1700 7550
Wire Wire Line
	1750 7450 1700 7450
Wire Wire Line
	1700 7450 1700 7550
Connection ~ 1700 7550
Wire Wire Line
	1700 7550 1550 7550
Wire Wire Line
	1750 7350 1700 7350
Wire Wire Line
	1700 7350 1700 7450
Connection ~ 1700 7450
Wire Wire Line
	1750 7250 1700 7250
Wire Wire Line
	1700 7250 1700 7350
Connection ~ 1700 7350
Text GLabel 4200 3700 0    50   Input ~ 0
3.3V
Wire Wire Line
	4200 3700 4250 3700
Connection ~ 4250 3700
Text GLabel 2850 7250 2    50   Input ~ 0
3.3V
Wire Wire Line
	2850 7250 2750 7250
Text GLabel 2850 7350 2    50   Input ~ 0
GND
Wire Wire Line
	2750 7350 2850 7350
Text GLabel 4000 4650 2    50   Input ~ 0
3.3V
Wire Wire Line
	2250 4650 2350 4650
Connection ~ 2350 4650
Wire Wire Line
	2250 4650 2150 4650
Connection ~ 2250 4650
Wire Wire Line
	2150 4650 2050 4650
Connection ~ 2150 4650
$Comp
L Device:R R7
U 1 1 5D362616
P 3650 6100
AR Path="/5D362616" Ref="R7"  Part="1" 
AR Path="/5CE9B021/5D362616" Ref="R?"  Part="1" 
AR Path="/5CECDB8C/5D362616" Ref="R?"  Part="1" 
AR Path="/5CECDD63/5D362616" Ref="R?"  Part="1" 
AR Path="/5CECDEFB/5D362616" Ref="R?"  Part="1" 
AR Path="/5CECE0C4/5D362616" Ref="R?"  Part="1" 
F 0 "R7" H 3720 6146 50  0000 L CNN
F 1 "10k" H 3720 6055 50  0000 L CNN
F 2 "IPC7351-Nominal:RESC1608X50N" V 3580 6100 50  0001 C CNN
F 3 "~" H 3650 6100 50  0001 C CNN
	1    3650 6100
	-1   0    0    1   
$EndComp
$Comp
L Device:R R6
U 1 1 5D36A4A4
P 3350 6100
AR Path="/5D36A4A4" Ref="R6"  Part="1" 
AR Path="/5CE9B021/5D36A4A4" Ref="R?"  Part="1" 
AR Path="/5CECDB8C/5D36A4A4" Ref="R?"  Part="1" 
AR Path="/5CECDD63/5D36A4A4" Ref="R?"  Part="1" 
AR Path="/5CECDEFB/5D36A4A4" Ref="R?"  Part="1" 
AR Path="/5CECE0C4/5D36A4A4" Ref="R?"  Part="1" 
F 0 "R6" H 3420 6146 50  0000 L CNN
F 1 "10k" H 3420 6055 50  0000 L CNN
F 2 "IPC7351-Nominal:RESC1608X50N" V 3280 6100 50  0001 C CNN
F 3 "~" H 3350 6100 50  0001 C CNN
	1    3350 6100
	-1   0    0    1   
$EndComp
Wire Wire Line
	3350 6350 3350 6250
Wire Wire Line
	3650 6450 3650 6250
Wire Wire Line
	3650 5950 3650 5800
Wire Wire Line
	3650 5800 3350 5800
Wire Wire Line
	3350 5800 3350 5950
Wire Wire Line
	3350 5800 3350 4650
Connection ~ 3350 5800
Connection ~ 3350 4650
Wire Wire Line
	3350 4650 2350 4650
Text Label 1300 6150 0    50   ~ 0
SDA
Text Label 1300 6050 0    50   ~ 0
SCL
$Comp
L Device:R R2
U 1 1 5D39E27D
P 1100 4900
AR Path="/5D39E27D" Ref="R2"  Part="1" 
AR Path="/5CE9B021/5D39E27D" Ref="R?"  Part="1" 
AR Path="/5CECDB8C/5D39E27D" Ref="R?"  Part="1" 
AR Path="/5CECDD63/5D39E27D" Ref="R?"  Part="1" 
AR Path="/5CECDEFB/5D39E27D" Ref="R?"  Part="1" 
AR Path="/5CECE0C4/5D39E27D" Ref="R?"  Part="1" 
F 0 "R2" H 1170 4946 50  0000 L CNN
F 1 "10k" H 1170 4855 50  0000 L CNN
F 2 "IPC7351-Nominal:RESC1608X50N" V 1030 4900 50  0001 C CNN
F 3 "~" H 1100 4900 50  0001 C CNN
	1    1100 4900
	-1   0    0    1   
$EndComp
$Comp
L Device:R R1
U 1 1 5D39E283
P 800 4900
AR Path="/5D39E283" Ref="R1"  Part="1" 
AR Path="/5CE9B021/5D39E283" Ref="R?"  Part="1" 
AR Path="/5CECDB8C/5D39E283" Ref="R?"  Part="1" 
AR Path="/5CECDD63/5D39E283" Ref="R?"  Part="1" 
AR Path="/5CECDEFB/5D39E283" Ref="R?"  Part="1" 
AR Path="/5CECE0C4/5D39E283" Ref="R?"  Part="1" 
F 0 "R1" H 870 4946 50  0000 L CNN
F 1 "10k" H 870 4855 50  0000 L CNN
F 2 "IPC7351-Nominal:RESC1608X50N" V 730 4900 50  0001 C CNN
F 3 "~" H 800 4900 50  0001 C CNN
	1    800  4900
	-1   0    0    1   
$EndComp
Wire Wire Line
	2050 4650 1100 4650
Wire Wire Line
	800  4650 800  4750
Connection ~ 2050 4650
Wire Wire Line
	1100 4750 1100 4650
Connection ~ 1100 4650
Wire Wire Line
	1100 4650 800  4650
Wire Wire Line
	2950 6350 3350 6350
Wire Wire Line
	2950 6450 3650 6450
Wire Wire Line
	3350 7450 3350 6350
Wire Wire Line
	2750 7450 3350 7450
Connection ~ 3350 6350
Wire Wire Line
	3650 6450 3650 7550
Wire Wire Line
	2750 7550 3650 7550
Connection ~ 3650 6450
Wire Wire Line
	1700 7250 1700 6850
Wire Wire Line
	1700 6850 2050 6850
Connection ~ 1700 7250
Wire Wire Line
	2050 6850 2150 6850
Connection ~ 2050 6850
Wire Wire Line
	2150 6850 2250 6850
Connection ~ 2150 6850
Wire Wire Line
	2250 6850 2350 6850
Connection ~ 2250 6850
Wire Wire Line
	2350 6850 2450 6850
Connection ~ 2350 6850
$Comp
L Device:C C?
U 1 1 5D4656A5
P 4600 6650
AR Path="/5CE9B021/5D4656A5" Ref="C?"  Part="1" 
AR Path="/5CECE0C4/5D4656A5" Ref="C?"  Part="1" 
AR Path="/5D4656A5" Ref="C8"  Part="1" 
F 0 "C8" H 4715 6696 50  0000 L CNN
F 1 "0.1u" H 4715 6605 50  0000 L CNN
F 2 "IPC7351-Nominal:CAPC1608X55N" H 4638 6500 50  0001 C CNN
F 3 "~" H 4600 6650 50  0001 C CNN
	1    4600 6650
	1    0    0    -1  
$EndComp
Text GLabel 4950 6800 2    50   Input ~ 0
GND
Wire Wire Line
	4900 6400 4900 6800
Connection ~ 4900 6800
Wire Wire Line
	4900 6800 4950 6800
Wire Wire Line
	4600 6100 4600 6500
Wire Wire Line
	4600 6100 4900 6100
Wire Wire Line
	4600 6800 4900 6800
Wire Wire Line
	4900 6200 4700 6200
Wire Wire Line
	4900 6300 4700 6300
Text Label 4700 6200 0    50   ~ 0
TXD
Text Label 4700 6300 0    50   ~ 0
RXD
Wire Wire Line
	1550 5450 1350 5450
Wire Wire Line
	1550 5350 1350 5350
Text Label 1350 5450 0    50   ~ 0
TXD
Text Label 1350 5350 0    50   ~ 0
RXD
$Comp
L Device:C C?
U 1 1 5D4EECBF
P 3550 5000
AR Path="/5CE9B021/5D4EECBF" Ref="C?"  Part="1" 
AR Path="/5CECE0C4/5D4EECBF" Ref="C?"  Part="1" 
AR Path="/5D4EECBF" Ref="C3"  Part="1" 
F 0 "C3" H 3665 5046 50  0000 L CNN
F 1 "0.1u" H 3665 4955 50  0000 L CNN
F 2 "IPC7351-Nominal:CAPC1608X55N" H 3588 4850 50  0001 C CNN
F 3 "~" H 3550 5000 50  0001 C CNN
	1    3550 5000
	1    0    0    -1  
$EndComp
$Comp
L Device:C C?
U 1 1 5D4FA8E7
P 3950 5000
AR Path="/5CE9B021/5D4FA8E7" Ref="C?"  Part="1" 
AR Path="/5CECE0C4/5D4FA8E7" Ref="C?"  Part="1" 
AR Path="/5D4FA8E7" Ref="C4"  Part="1" 
F 0 "C4" H 4065 5046 50  0000 L CNN
F 1 "0.1u" H 4065 4955 50  0000 L CNN
F 2 "IPC7351-Nominal:CAPC1608X55N" H 3988 4850 50  0001 C CNN
F 3 "~" H 3950 5000 50  0001 C CNN
	1    3950 5000
	1    0    0    -1  
$EndComp
Wire Wire Line
	3350 4650 3550 4650
Wire Wire Line
	3950 4850 3950 4650
Connection ~ 3950 4650
Wire Wire Line
	3950 4650 4000 4650
Wire Wire Line
	3550 4850 3550 4650
Connection ~ 3550 4650
Wire Wire Line
	3550 4650 3950 4650
Text GLabel 4050 5350 2    50   Input ~ 0
GND
Wire Wire Line
	3550 5150 3550 5350
Wire Wire Line
	3550 5350 3950 5350
Wire Wire Line
	3950 5150 3950 5350
Connection ~ 3950 5350
Wire Wire Line
	3950 5350 4050 5350
Text GLabel 10300 1050 2    50   Input ~ 0
GND_ISO
$Comp
L Device:C C?
U 1 1 5D584EDA
P 6300 6650
AR Path="/5CE9B021/5D584EDA" Ref="C?"  Part="1" 
AR Path="/5CECE0C4/5D584EDA" Ref="C?"  Part="1" 
AR Path="/5D584EDA" Ref="C11"  Part="1" 
F 0 "C11" H 6415 6696 50  0000 L CNN
F 1 "0.1u" H 6415 6605 50  0000 L CNN
F 2 "IPC7351-Nominal:CAPC1608X55N" H 6338 6500 50  0001 C CNN
F 3 "~" H 6300 6650 50  0001 C CNN
	1    6300 6650
	1    0    0    -1  
$EndComp
Wire Wire Line
	6000 6100 6300 6100
Wire Wire Line
	6300 6100 6300 6500
Text GLabel 5950 6800 0    50   Input ~ 0
GND_ISO
Wire Wire Line
	6000 6400 6000 6800
Wire Wire Line
	6000 6800 5950 6800
Wire Wire Line
	6000 6800 6300 6800
Connection ~ 6000 6800
Text Label 6000 6200 0    50   ~ 0
CANH
Text Label 6000 6300 0    50   ~ 0
CANL
$Comp
L Device:L L1
U 1 1 5D618AF3
P 8650 1050
F 0 "L1" H 8702 1096 50  0000 L CNN
F 1 "220uH" H 8702 1005 50  0000 L CNN
F 2 "user-footprints:INDM3040X250N" H 8650 1050 50  0001 C CNN
F 3 "http://uk.rs-online.com/web/p/products/8135665" H 8650 1050 50  0001 C CNN
	1    8650 1050
	0    -1   -1   0   
$EndComp
$Comp
L Device:R R15
U 1 1 5D619F05
P 7850 1250
AR Path="/5D619F05" Ref="R15"  Part="1" 
AR Path="/5CE9B021/5D619F05" Ref="R?"  Part="1" 
AR Path="/5CECDB8C/5D619F05" Ref="R?"  Part="1" 
AR Path="/5CECDD63/5D619F05" Ref="R?"  Part="1" 
AR Path="/5CECDEFB/5D619F05" Ref="R?"  Part="1" 
AR Path="/5CECE0C4/5D619F05" Ref="R?"  Part="1" 
F 0 "R15" V 7643 1250 50  0000 C CNN
F 1 "2.49" V 7734 1250 50  0000 C CNN
F 2 "IPC7351-Nominal:RESC1608X50N" V 7780 1250 50  0001 C CNN
F 3 "~" H 7850 1250 50  0001 C CNN
	1    7850 1250
	1    0    0    -1  
$EndComp
$Comp
L Device:C C?
U 1 1 5D65FB3A
P 7850 1650
AR Path="/5CE9B021/5D65FB3A" Ref="C?"  Part="1" 
AR Path="/5CECE0C4/5D65FB3A" Ref="C?"  Part="1" 
AR Path="/5D65FB3A" Ref="C14"  Part="1" 
F 0 "C14" H 7965 1696 50  0000 L CNN
F 1 "10u" H 7965 1605 50  0000 L CNN
F 2 "IPC7351-Nominal:CAPC1608X55N" H 7888 1500 50  0001 C CNN
F 3 "~" H 7850 1650 50  0001 C CNN
	1    7850 1650
	1    0    0    -1  
$EndComp
$Comp
L Device:C C?
U 1 1 5D6A40B4
P 8350 1650
AR Path="/5CE9B021/5D6A40B4" Ref="C?"  Part="1" 
AR Path="/5CECE0C4/5D6A40B4" Ref="C?"  Part="1" 
AR Path="/5D6A40B4" Ref="C15"  Part="1" 
F 0 "C15" H 8465 1696 50  0000 L CNN
F 1 "56n" H 8465 1605 50  0000 L CNN
F 2 "IPC7351-Nominal:CAPC1608X55N" H 8388 1500 50  0001 C CNN
F 3 "~" H 8350 1650 50  0001 C CNN
	1    8350 1650
	1    0    0    -1  
$EndComp
Text GLabel 8850 1850 2    50   Input ~ 0
GND_ISO
Wire Wire Line
	7850 1400 7850 1500
$Comp
L Device:R R16
U 1 1 5D722137
P 8700 1650
AR Path="/5D722137" Ref="R16"  Part="1" 
AR Path="/5CE9B021/5D722137" Ref="R?"  Part="1" 
AR Path="/5CECDB8C/5D722137" Ref="R?"  Part="1" 
AR Path="/5CECDD63/5D722137" Ref="R?"  Part="1" 
AR Path="/5CECDEFB/5D722137" Ref="R?"  Part="1" 
AR Path="/5CECE0C4/5D722137" Ref="R?"  Part="1" 
F 0 "R16" H 8630 1604 50  0000 R CNN
F 1 "93.1k" H 8630 1695 50  0000 R CNN
F 2 "IPC7351-Nominal:RESC1608X50N" V 8630 1650 50  0001 C CNN
F 3 "~" H 8700 1650 50  0001 C CNN
	1    8700 1650
	-1   0    0    1   
$EndComp
Wire Wire Line
	8700 1500 8700 1450
Wire Wire Line
	8700 1450 8950 1450
Wire Wire Line
	8950 1350 8350 1350
Wire Wire Line
	8350 1350 8350 1500
Wire Wire Line
	8950 1250 8150 1250
Wire Wire Line
	8150 1250 8150 1850
Wire Wire Line
	8150 1850 8350 1850
Wire Wire Line
	8700 1850 8700 1800
Wire Wire Line
	8350 1800 8350 1850
Connection ~ 8350 1850
Wire Wire Line
	8350 1850 8700 1850
Wire Wire Line
	8850 1850 8700 1850
Connection ~ 8700 1850
Text GLabel 7700 1050 0    50   Input ~ 0
5V_ISO
Text GLabel 6350 6100 2    50   Input ~ 0
5V_ISO
Text GLabel 4550 6100 0    50   Input ~ 0
3.3V
Wire Wire Line
	4550 6100 4600 6100
Connection ~ 4600 6100
Wire Wire Line
	6350 6100 6300 6100
Connection ~ 6300 6100
Wire Wire Line
	8800 1050 8950 1050
Wire Wire Line
	7850 1800 7850 1850
Wire Wire Line
	7850 1850 8150 1850
Connection ~ 8150 1850
Wire Wire Line
	7700 1050 7850 1050
Wire Wire Line
	7850 1100 7850 1050
Connection ~ 7850 1050
Wire Wire Line
	7850 1050 8500 1050
Wire Wire Line
	10150 1050 10300 1050
Text Label 10200 1350 0    50   ~ 0
VIN_ISO
Text GLabel 10600 1250 2    50   Input ~ 0
5V_ISO
Wire Wire Line
	10150 1350 10500 1350
Wire Wire Line
	10600 1250 10150 1250
Text GLabel 8100 650  0    50   Input ~ 0
VIN_ISO
$Comp
L Device:R R3
U 1 1 5D9B1E08
P 2850 6850
AR Path="/5D9B1E08" Ref="R3"  Part="1" 
AR Path="/5CE9B021/5D9B1E08" Ref="R?"  Part="1" 
AR Path="/5CECDB8C/5D9B1E08" Ref="R?"  Part="1" 
AR Path="/5CECDD63/5D9B1E08" Ref="R?"  Part="1" 
AR Path="/5CECDEFB/5D9B1E08" Ref="R?"  Part="1" 
AR Path="/5CECE0C4/5D9B1E08" Ref="R?"  Part="1" 
F 0 "R3" H 2920 6896 50  0000 L CNN
F 1 "10k" H 2920 6805 50  0000 L CNN
F 2 "IPC7351-Nominal:RESC1608X50N" V 2780 6850 50  0001 C CNN
F 3 "~" H 2850 6850 50  0001 C CNN
	1    2850 6850
	0    1    1    0   
$EndComp
Wire Wire Line
	2950 6650 3000 6650
Wire Wire Line
	2950 6550 3250 6550
Wire Wire Line
	3000 6850 3000 6650
Connection ~ 3000 6650
Wire Wire Line
	3000 6650 3250 6650
Wire Wire Line
	2700 6850 2450 6850
Connection ~ 2450 6850
Wire Wire Line
	6000 3300 5800 3300
Wire Wire Line
	5650 4100 6000 4100
Wire Wire Line
	5650 3900 6000 3900
Wire Wire Line
	5650 3800 6000 3800
Wire Wire Line
	5300 3700 6000 3700
Wire Wire Line
	4800 3600 6000 3600
Wire Wire Line
	5100 3500 6000 3500
Wire Wire Line
	4950 3400 6000 3400
Text Label 5800 3300 0    50   ~ 0
TS1
Text Label 5800 4000 0    50   ~ 0
TS2
Wire Wire Line
	6000 4000 5800 4000
Wire Wire Line
	5800 4200 6000 4200
$Comp
L Connector_Generic_MountingPin:Conn_02x10_Odd_Even_MountingPin J2
U 1 1 5DBE3243
P 9750 3900
F 0 "J2" H 9800 4517 50  0000 C CNN
F 1 "Conn_02x10_Odd_Even_MountingPin" H 9800 4426 50  0000 C CNN
F 2 "Samtec_T2M:T2M-110-01-L-D-RA-WT" H 9750 3900 50  0001 C CNN
F 3 "~" H 9750 3900 50  0001 C CNN
	1    9750 3900
	1    0    0    -1  
$EndComp
$Comp
L Connector_Generic_MountingPin:Conn_02x02_Odd_Even_MountingPin J1
U 1 1 5DBE4303
P 9750 2700
F 0 "J1" H 9800 2917 50  0000 C CNN
F 1 "Conn_02x02_Odd_Even_MountingPin" H 9800 2826 50  0000 C CNN
F 2 "Samtec_T2M:T2M-102-01-L-D-RA-WT" H 9750 2700 50  0001 C CNN
F 3 "~" H 9750 2700 50  0001 C CNN
	1    9750 2700
	1    0    0    -1  
$EndComp
Text Label 3000 6550 0    50   ~ 0
PROG_TX
Text Label 3000 6650 0    50   ~ 0
PROG_RX
Wire Wire Line
	10050 2700 10250 2700
Wire Wire Line
	10050 2800 10250 2800
Text Label 10050 2700 0    50   ~ 0
CANH
Text Label 10050 2800 0    50   ~ 0
CANL
Wire Wire Line
	9350 2800 9500 2800
Text GLabel 9350 2800 0    50   Input ~ 0
GND_ISO
Text Label 9200 4300 0    50   ~ 0
C9
Text Label 9200 4200 0    50   ~ 0
C8
Text Label 9200 4100 0    50   ~ 0
C7
Text Label 9200 4000 0    50   ~ 0
C6
Text Label 9200 3800 0    50   ~ 0
C4
Text Label 9200 3700 0    50   ~ 0
C3
Text Label 9200 3600 0    50   ~ 0
C2
Text Label 9200 3500 0    50   ~ 0
C1
Text Label 9200 3900 0    50   ~ 0
C5
Wire Wire Line
	9550 4200 9200 4200
Wire Wire Line
	9550 4100 9200 4100
Wire Wire Line
	9550 4000 9200 4000
Wire Wire Line
	9550 3900 9200 3900
Wire Wire Line
	9550 3800 9200 3800
Wire Wire Line
	9550 3700 9200 3700
Wire Wire Line
	9550 3600 9200 3600
Wire Wire Line
	9550 3500 9200 3500
Wire Wire Line
	9550 4300 9200 4300
Wire Wire Line
	9550 4400 9200 4400
Text Label 9200 4400 0    50   ~ 0
C10
Wire Wire Line
	10400 3500 10050 3500
Text Label 10150 3500 0    50   ~ 0
C0
Text GLabel 10400 3600 2    50   Input ~ 0
GND
Wire Wire Line
	10400 3600 10050 3600
Wire Wire Line
	10400 3700 10050 3700
Wire Wire Line
	10400 3900 10050 3900
Wire Wire Line
	10400 4000 10050 4000
Text Label 10150 3900 0    50   ~ 0
VC5X
Text Label 10150 3700 0    50   ~ 0
TS1
Wire Wire Line
	9350 2700 9550 2700
Text GLabel 9350 2700 0    50   Input ~ 0
VIN_ISO
Text Label 10150 4000 0    50   ~ 0
TS2
$Comp
L Device:C C?
U 1 1 5DE7A8DC
P 8150 800
AR Path="/5CE9B021/5DE7A8DC" Ref="C?"  Part="1" 
AR Path="/5CECE0C4/5DE7A8DC" Ref="C?"  Part="1" 
AR Path="/5DE7A8DC" Ref="C26"  Part="1" 
F 0 "C26" H 8265 846 50  0000 L CNN
F 1 "1u" H 8265 755 50  0000 L CNN
F 2 "IPC7351-Nominal:CAPC1608X55N" H 8188 650 50  0001 C CNN
F 3 "~" H 8150 800 50  0001 C CNN
	1    8150 800 
	1    0    0    -1  
$EndComp
Wire Wire Line
	8100 650  8150 650 
Wire Wire Line
	8150 650  8400 650 
Wire Wire Line
	8400 650  8400 1150
Wire Wire Line
	8400 1150 8950 1150
Connection ~ 8150 650 
Wire Wire Line
	8150 950  8150 1250
Connection ~ 8150 1250
$Comp
L Device:R R47
U 1 1 5DF2D6C2
P 6950 6250
AR Path="/5DF2D6C2" Ref="R47"  Part="1" 
AR Path="/5CE9B021/5DF2D6C2" Ref="R?"  Part="1" 
AR Path="/5CECDB8C/5DF2D6C2" Ref="R?"  Part="1" 
AR Path="/5CECDD63/5DF2D6C2" Ref="R?"  Part="1" 
AR Path="/5CECDEFB/5DF2D6C2" Ref="R?"  Part="1" 
AR Path="/5CECE0C4/5DF2D6C2" Ref="R?"  Part="1" 
F 0 "R47" H 6880 6204 50  0000 R CNN
F 1 "120" H 6880 6295 50  0000 R CNN
F 2 "IPC7351-Nominal:RESC1608X50N" V 6880 6250 50  0001 C CNN
F 3 "~" H 6950 6250 50  0001 C CNN
	1    6950 6250
	-1   0    0    1   
$EndComp
Wire Wire Line
	6800 6200 6800 6100
Wire Wire Line
	6800 6100 6950 6100
Wire Wire Line
	6000 6200 6800 6200
Wire Wire Line
	6950 6400 6800 6400
Wire Wire Line
	6800 6400 6800 6300
Wire Wire Line
	6000 6300 6800 6300
Wire Wire Line
	7300 2800 7550 2800
Text Label 7350 2800 0    50   ~ 0
ALERT
Wire Wire Line
	1300 6250 1550 6250
Text Label 1300 6250 0    50   ~ 0
ALERT
Wire Wire Line
	1100 5050 1100 6050
Wire Wire Line
	1100 6050 1550 6050
Wire Wire Line
	800  5050 800  6150
Wire Wire Line
	800  6150 1550 6150
Wire Wire Line
	9500 2800 9500 3000
Wire Wire Line
	9500 3000 9800 3000
Connection ~ 9500 2800
Wire Wire Line
	9500 2800 9550 2800
Text Label 9250 5700 0    50   ~ 0
PROG_TX
Text Label 9250 5800 0    50   ~ 0
PROG_RX
$Comp
L Connector_Generic:Conn_01x03 J?
U 1 1 5E342E19
P 9800 5700
F 0 "J?" H 9880 5742 50  0000 L CNN
F 1 "Conn_01x03" H 9880 5651 50  0000 L CNN
F 2 "" H 9800 5700 50  0001 C CNN
F 3 "~" H 9800 5700 50  0001 C CNN
	1    9800 5700
	1    0    0    -1  
$EndComp
Wire Wire Line
	9250 5700 9600 5700
Wire Wire Line
	9250 5800 9600 5800
Wire Wire Line
	9600 5600 9250 5600
Text GLabel 9250 5600 0    50   Input ~ 0
GND
$EndSCHEMATC
