EESchema Schematic File Version 4
LIBS:BMS-cache
EELAYER 29 0
EELAYER END
$Descr A4 11693 8268
encoding utf-8
Sheet 5 6
Title ""
Date ""
Rev ""
Comp ""
Comment1 ""
Comment2 ""
Comment3 ""
Comment4 ""
$EndDescr
Text HLabel 5050 2750 0    50   Input ~ 0
C+
Text HLabel 5050 3650 0    50   Input ~ 0
C_MID
$Comp
L MMSZ5232BS-7-F:MMSZ5232BS-7-F Z?
U 1 1 5CEABB48
P 6150 3250
AR Path="/5CEABB48" Ref="Z?"  Part="1" 
AR Path="/5CE9B021/5CEABB48" Ref="Z1"  Part="1" 
AR Path="/5CECDB8C/5CEABB48" Ref="Z3"  Part="1" 
AR Path="/5CECDD63/5CEABB48" Ref="Z5"  Part="1" 
AR Path="/5CECDEFB/5CEABB48" Ref="Z7"  Part="1" 
AR Path="/5CECE0C4/5CEABB48" Ref="Z9"  Part="1" 
F 0 "Z7" H 6450 3515 50  0000 C CNN
F 1 "MMSZ5232BS-7-F" H 6450 3424 50  0000 C CNN
F 2 "SOD2513X120N" H 6550 3400 50  0001 L CNN
F 3 "" H 6550 3300 50  0001 L CNN
F 4 "Diodes Inc MMSZ5232BS-7-F Zener Diode, 5.6V 5% 200 mW SMT 2-Pin SOD-323" H 6550 3200 50  0001 L CNN "Description"
F 5 "1.2" H 6550 3100 50  0001 L CNN "Height"
F 6 "Diodes Inc." H 6550 3000 50  0001 L CNN "Manufacturer_Name"
F 7 "MMSZ5232BS-7-F" H 6550 2900 50  0001 L CNN "Manufacturer_Part_Number"
F 8 "621-MMSZ5232BS-F" H 6550 2800 50  0001 L CNN "Mouser Part Number"
F 9 "https://www.mouser.com/Search/Refine.aspx?Keyword=621-MMSZ5232BS-F" H 6550 2700 50  0001 L CNN "Mouser Price/Stock"
F 10 "8231518" H 6550 2600 50  0001 L CNN "RS Part Number"
F 11 "https://uk.rs-online.com/web/p/products/8231518" H 6550 2500 50  0001 L CNN "RS Price/Stock"
	1    6150 3250
	1    0    0    -1  
$EndComp
$Comp
L Device:R R?
U 1 1 5CEABB4E
P 7250 3250
AR Path="/5CEABB4E" Ref="R?"  Part="1" 
AR Path="/5CE9B021/5CEABB4E" Ref="R21"  Part="1" 
AR Path="/5CECDB8C/5CEABB4E" Ref="R27"  Part="1" 
AR Path="/5CECDD63/5CEABB4E" Ref="R33"  Part="1" 
AR Path="/5CECDEFB/5CEABB4E" Ref="R39"  Part="1" 
AR Path="/5CECE0C4/5CEABB4E" Ref="R45"  Part="1" 
F 0 "R39" H 7320 3296 50  0000 L CNN
F 1 "10k" H 7320 3205 50  0000 L CNN
F 2 "IPC7351-Nominal:RESC1608X50N" V 7180 3250 50  0001 C CNN
F 3 "~" H 7250 3250 50  0001 C CNN
	1    7250 3250
	0    -1   -1   0   
$EndComp
$Comp
L Device:R R?
U 1 1 5CEABB5A
P 5200 4350
AR Path="/5CEABB5A" Ref="R?"  Part="1" 
AR Path="/5CE9B021/5CEABB5A" Ref="R18"  Part="1" 
AR Path="/5CECDB8C/5CEABB5A" Ref="R24"  Part="1" 
AR Path="/5CECDD63/5CEABB5A" Ref="R30"  Part="1" 
AR Path="/5CECDEFB/5CEABB5A" Ref="R36"  Part="1" 
AR Path="/5CECE0C4/5CEABB5A" Ref="R42"  Part="1" 
F 0 "R36" H 5270 4396 50  0000 L CNN
F 1 "100" H 5270 4305 50  0000 L CNN
F 2 "IPC7351-Nominal:RESC1608X50N" V 5130 4350 50  0001 C CNN
F 3 "~" H 5200 4350 50  0001 C CNN
	1    5200 4350
	1    0    0    -1  
$EndComp
Wire Wire Line
	6750 3250 6900 3250
Wire Wire Line
	6150 3250 6000 3250
Wire Wire Line
	6000 3250 6000 2750
Wire Wire Line
	6000 2750 6300 2750
Wire Wire Line
	6600 2750 7450 2750
Wire Wire Line
	7450 2750 7450 3250
Wire Wire Line
	7450 3250 7400 3250
Text HLabel 5050 4600 0    50   Input ~ 0
C-
$Comp
L FDY1002PZ:FDY1002PZ Q?
U 1 1 5CEAE64A
P 6400 5350
AR Path="/5CEAE64A" Ref="Q?"  Part="1" 
AR Path="/5CE9B021/5CEAE64A" Ref="Q2"  Part="1" 
AR Path="/5CECDB8C/5CEAE64A" Ref="Q3"  Part="1" 
AR Path="/5CECDD63/5CEAE64A" Ref="Q4"  Part="1" 
AR Path="/5CECDEFB/5CEAE64A" Ref="Q5"  Part="1" 
AR Path="/5CECE0C4/5CEAE64A" Ref="Q6"  Part="1" 
F 0 "Q5" H 6850 5615 50  0000 C CNN
F 1 "FDY1002PZ" H 6850 5524 50  0000 C CNN
F 2 "SOTFL50P160X60-6N" H 7150 5450 50  0001 L CNN
F 3 "" H 7150 5350 50  0001 L CNN
F 4 "MOSFET -20V DUAL P-CHAN POWERTRENCH" H 7150 5250 50  0001 L CNN "Description"
F 5 "0.6" H 7150 5150 50  0001 L CNN "Height"
F 6 "Fairchild Semiconductor" H 7150 5050 50  0001 L CNN "Manufacturer_Name"
F 7 "FDY1002PZ" H 7150 4950 50  0001 L CNN "Manufacturer_Part_Number"
F 8 "" H 7150 4850 50  0001 L CNN "Mouser Part Number"
F 9 "" H 7150 4750 50  0001 L CNN "Mouser Price/Stock"
F 10 "" H 7150 4650 50  0001 L CNN "RS Part Number"
F 11 "" H 7150 4550 50  0001 L CNN "RS Price/Stock"
	1    6400 5350
	1    0    0    -1  
$EndComp
Text Label 6900 3550 0    50   ~ 0
G_TOP
Wire Wire Line
	6900 3550 6900 3250
Connection ~ 6900 3250
Wire Wire Line
	6900 3250 7100 3250
$Comp
L MMSZ5232BS-7-F:MMSZ5232BS-7-F Z?
U 1 1 5CEB6F27
P 6150 4150
AR Path="/5CEB6F27" Ref="Z?"  Part="1" 
AR Path="/5CE9B021/5CEB6F27" Ref="Z2"  Part="1" 
AR Path="/5CECDB8C/5CEB6F27" Ref="Z4"  Part="1" 
AR Path="/5CECDD63/5CEB6F27" Ref="Z6"  Part="1" 
AR Path="/5CECDEFB/5CEB6F27" Ref="Z8"  Part="1" 
AR Path="/5CECE0C4/5CEB6F27" Ref="Z10"  Part="1" 
F 0 "Z8" H 6450 4415 50  0000 C CNN
F 1 "MMSZ5232BS-7-F" H 6450 4324 50  0000 C CNN
F 2 "SOD2513X120N" H 6550 4300 50  0001 L CNN
F 3 "" H 6550 4200 50  0001 L CNN
F 4 "Diodes Inc MMSZ5232BS-7-F Zener Diode, 5.6V 5% 200 mW SMT 2-Pin SOD-323" H 6550 4100 50  0001 L CNN "Description"
F 5 "1.2" H 6550 4000 50  0001 L CNN "Height"
F 6 "Diodes Inc." H 6550 3900 50  0001 L CNN "Manufacturer_Name"
F 7 "MMSZ5232BS-7-F" H 6550 3800 50  0001 L CNN "Manufacturer_Part_Number"
F 8 "621-MMSZ5232BS-F" H 6550 3700 50  0001 L CNN "Mouser Part Number"
F 9 "https://www.mouser.com/Search/Refine.aspx?Keyword=621-MMSZ5232BS-F" H 6550 3600 50  0001 L CNN "Mouser Price/Stock"
F 10 "8231518" H 6550 3500 50  0001 L CNN "RS Part Number"
F 11 "https://uk.rs-online.com/web/p/products/8231518" H 6550 3400 50  0001 L CNN "RS Price/Stock"
	1    6150 4150
	1    0    0    -1  
$EndComp
$Comp
L Device:R R?
U 1 1 5CEB6F2D
P 7250 4150
AR Path="/5CEB6F2D" Ref="R?"  Part="1" 
AR Path="/5CE9B021/5CEB6F2D" Ref="R22"  Part="1" 
AR Path="/5CECDB8C/5CEB6F2D" Ref="R28"  Part="1" 
AR Path="/5CECDD63/5CEB6F2D" Ref="R34"  Part="1" 
AR Path="/5CECDEFB/5CEB6F2D" Ref="R40"  Part="1" 
AR Path="/5CECE0C4/5CEB6F2D" Ref="R46"  Part="1" 
F 0 "R40" H 7320 4196 50  0000 L CNN
F 1 "10k" H 7320 4105 50  0000 L CNN
F 2 "IPC7351-Nominal:RESC1608X50N" V 7180 4150 50  0001 C CNN
F 3 "~" H 7250 4150 50  0001 C CNN
	1    7250 4150
	0    -1   -1   0   
$EndComp
$Comp
L Device:R R?
U 1 1 5CEB6F33
P 6450 3650
AR Path="/5CEB6F33" Ref="R?"  Part="1" 
AR Path="/5CE9B021/5CEB6F33" Ref="R20"  Part="1" 
AR Path="/5CECDB8C/5CEB6F33" Ref="R26"  Part="1" 
AR Path="/5CECDD63/5CEB6F33" Ref="R32"  Part="1" 
AR Path="/5CECDEFB/5CEB6F33" Ref="R38"  Part="1" 
AR Path="/5CECE0C4/5CEB6F33" Ref="R44"  Part="1" 
F 0 "R38" H 6520 3696 50  0000 L CNN
F 1 "1k" H 6520 3605 50  0000 L CNN
F 2 "IPC7351-Nominal:RESC1608X50N" V 6380 3650 50  0001 C CNN
F 3 "~" H 6450 3650 50  0001 C CNN
	1    6450 3650
	0    -1   -1   0   
$EndComp
Wire Wire Line
	6750 4150 6900 4150
Wire Wire Line
	6150 4150 6000 4150
Wire Wire Line
	6000 4150 6000 3650
Wire Wire Line
	6000 3650 6300 3650
Wire Wire Line
	6600 3650 7450 3650
Wire Wire Line
	7450 3650 7450 4150
Wire Wire Line
	7450 4150 7400 4150
Text Label 6900 4450 0    50   ~ 0
G_BOT
Wire Wire Line
	6900 4450 6900 4150
Connection ~ 6900 4150
Wire Wire Line
	6900 4150 7100 4150
Wire Wire Line
	5050 4600 5200 4600
Wire Wire Line
	5200 4600 5200 4500
$Comp
L Device:R R?
U 1 1 5CEB900E
P 5200 3400
AR Path="/5CEB900E" Ref="R?"  Part="1" 
AR Path="/5CE9B021/5CEB900E" Ref="R17"  Part="1" 
AR Path="/5CECDB8C/5CEB900E" Ref="R23"  Part="1" 
AR Path="/5CECDD63/5CEB900E" Ref="R29"  Part="1" 
AR Path="/5CECDEFB/5CEB900E" Ref="R35"  Part="1" 
AR Path="/5CECE0C4/5CEB900E" Ref="R41"  Part="1" 
F 0 "R35" H 5270 3446 50  0000 L CNN
F 1 "100" H 5270 3355 50  0000 L CNN
F 2 "IPC7351-Nominal:RESC1608X50N" V 5130 3400 50  0001 C CNN
F 3 "~" H 5200 3400 50  0001 C CNN
	1    5200 3400
	1    0    0    -1  
$EndComp
Wire Wire Line
	5050 3650 5200 3650
Wire Wire Line
	5200 3650 5200 3550
Wire Wire Line
	5200 3250 5550 3250
Wire Wire Line
	5200 4200 5550 4200
Wire Wire Line
	6150 5350 6400 5350
Wire Wire Line
	6150 5450 6400 5450
Wire Wire Line
	6150 5550 6400 5550
Text Label 7400 5450 0    50   ~ 0
G_BOT
Text Label 6150 5450 0    50   ~ 0
G_TOP
Wire Wire Line
	7300 5450 7650 5450
Wire Wire Line
	7300 5350 7650 5350
Wire Wire Line
	7300 5550 7650 5550
Connection ~ 5200 3650
Text Label 5550 2750 0    50   ~ 0
S_TOP
Text Label 5550 3250 0    50   ~ 0
D_TOP
Text Label 5550 3650 0    50   ~ 0
S_BOT
Text Label 5550 4200 0    50   ~ 0
D_BOT
Wire Wire Line
	5050 2750 6000 2750
Connection ~ 6000 2750
Wire Wire Line
	5200 3650 6000 3650
Connection ~ 6000 3650
Text HLabel 8000 2750 2    50   Input ~ 0
M+
Text HLabel 8000 3650 2    50   Input ~ 0
M_MID
Text HLabel 8000 4600 2    50   Input ~ 0
M-
Wire Wire Line
	8000 3650 7800 3650
Connection ~ 7450 3650
Wire Wire Line
	8000 2750 7800 2750
Connection ~ 7450 2750
Text Label 6150 5350 0    50   ~ 0
S_TOP
Text Label 6150 5550 0    50   ~ 0
D_TOP
Text Label 7400 5350 0    50   ~ 0
S_BOT
Text Label 7400 5550 0    50   ~ 0
D_BOT
$Comp
L Device:C C16
U 1 1 5CEF1B26
P 7800 3200
AR Path="/5CE9B021/5CEF1B26" Ref="C16"  Part="1" 
AR Path="/5CECE0C4/5CEF1B26" Ref="C24"  Part="1" 
AR Path="/5CECDD63/5CEF1B26" Ref="C20"  Part="1" 
AR Path="/5CECDB8C/5CEF1B26" Ref="C18"  Part="1" 
AR Path="/5CECDEFB/5CEF1B26" Ref="C22"  Part="1" 
F 0 "C22" H 7915 3246 50  0000 L CNN
F 1 "1u" H 7915 3155 50  0000 L CNN
F 2 "IPC7351-Nominal:CAPC1608X55N" H 7838 3050 50  0001 C CNN
F 3 "~" H 7800 3200 50  0001 C CNN
	1    7800 3200
	1    0    0    -1  
$EndComp
Wire Wire Line
	7800 3050 7800 2750
Connection ~ 7800 2750
Wire Wire Line
	7800 2750 7450 2750
Wire Wire Line
	7800 3350 7800 3650
Connection ~ 7800 3650
Wire Wire Line
	7800 3650 7450 3650
Wire Wire Line
	7800 4600 8000 4600
Wire Wire Line
	7800 4300 7800 4600
Wire Wire Line
	7800 3650 7800 4000
$Comp
L Device:C C17
U 1 1 5CEF00B6
P 7800 4150
AR Path="/5CE9B021/5CEF00B6" Ref="C17"  Part="1" 
AR Path="/5CECE0C4/5CEF00B6" Ref="C25"  Part="1" 
AR Path="/5CECDD63/5CEF00B6" Ref="C21"  Part="1" 
AR Path="/5CECDB8C/5CEF00B6" Ref="C19"  Part="1" 
AR Path="/5CECDEFB/5CEF00B6" Ref="C23"  Part="1" 
F 0 "C23" H 7915 4196 50  0000 L CNN
F 1 "1u" H 7915 4105 50  0000 L CNN
F 2 "IPC7351-Nominal:CAPC1608X55N" H 7838 4000 50  0001 C CNN
F 3 "~" H 7800 4150 50  0001 C CNN
	1    7800 4150
	1    0    0    -1  
$EndComp
$Comp
L Device:R R?
U 1 1 5CEABB54
P 6450 2750
AR Path="/5CEABB54" Ref="R?"  Part="1" 
AR Path="/5CE9B021/5CEABB54" Ref="R19"  Part="1" 
AR Path="/5CECDB8C/5CEABB54" Ref="R25"  Part="1" 
AR Path="/5CECDD63/5CEABB54" Ref="R31"  Part="1" 
AR Path="/5CECDEFB/5CEABB54" Ref="R37"  Part="1" 
AR Path="/5CECE0C4/5CEABB54" Ref="R43"  Part="1" 
F 0 "R37" H 6520 2796 50  0000 L CNN
F 1 "1k" H 6520 2705 50  0000 L CNN
F 2 "IPC7351-Nominal:RESC1608X50N" V 6380 2750 50  0001 C CNN
F 3 "~" H 6450 2750 50  0001 C CNN
	1    6450 2750
	0    -1   -1   0   
$EndComp
$EndSCHEMATC
